^E:\VISUAL STUDIO\SETI\BOOKTEST\PCH.CPP
E:\VISUAL STUDIO\SETI\BOOKTEST\X64\DEBUG\BOOKTEST.PCH
E:\VISUAL STUDIO\SETI\BOOKTEST\X64\DEBUG\VC142.PDB
E:\VISUAL STUDIO\SETI\BOOKTEST\X64\DEBUG\VC142.IDB
E:\VISUAL STUDIO\SETI\BOOKTEST\X64\DEBUG\PCH.OBJ
^E:\VISUAL STUDIO\SETI\BOOKTEST\DLLMAIN.CPP
E:\VISUAL STUDIO\SETI\BOOKTEST\X64\DEBUG\VC142.PDB
E:\VISUAL STUDIO\SETI\BOOKTEST\X64\DEBUG\VC142.IDB
E:\VISUAL STUDIO\SETI\BOOKTEST\X64\DEBUG\DLLMAIN.OBJ
